792028 142855 509
250079 287378 407
308633 903232 525
28003 214129 383
570359 612843 434
959611 181944 525
898991 308629 525
776921 313424 509
291289 42653 443
523159 665056 509
86929 472283 449
67053 912641 525
878776 909738 445
811521 155543 509
405675 807363 509
808428 182644 509
130486 949409 525
649998 426094 509
627701 599465 509
617219 646248 509
763305 91622 509
81588 313720 443
950245 911113 507
234195 841593 525
542318 283056 470
962233 251878 525
55880 497561 449
584412 907644 525
288046 515643 470
260366 725527 509
71610 283078 443
850726 443104 525
601977 304525 470
520572 878101 525
157209 383019 443
399742 78614 443
116884 497099 449
702593 770881 504
332415 216996 443
614128 120592 470
955178 807077 525
173518 680414 509
148242 957149 525
425609 537892 470
969880 418078 525
908954 305903 525
992503 860673 507
54508 852769 525
101337 132613 354
256384 375403 441
264567 124185 443
711756 370196 509
722153 694741 504
269538 977278 525
344715 739297 509
943370 637266 525
273817 82561 443
879797 880327 344
815287 804949 406
210236 294937 443
575639 251934 470
324169 291520 384
998293 871658 507
251907 504638 449
128933 335942 443
992063 210186 525
578948 978560 525
120813 166425 383
351037 409619 436
166301 111430 383
519330 829104 509
804000 656057 504
932479 482371 525
162838 299552 443
619082 582464 447
701233 476123 509
485036 227132 449
75834 627905 509
587946 706679 509
837476 307549 509
711774 615523 509
935420 624033 525
145008 138885 375
169531 891476 525
197035 324808 443
561389 894026 525
365597 108577 443
585354 611502 403
281513 466099 449
374465 32163 443
908559 37035 525
712413 604511 509
265870 574333 470
556005 155351 470
724068 209378 509
214450 19968 383
710226 621371 509
123707 587227 470
363764 112283 443
283807 121647 443
559551 873318 525
351613 349676 379
410485 942310 525
989637 267924 525
263106 128820 443
970394 119790 525
949335 538002 525
229801 196178 386
569413 873453 525
849554 401768 525
638336 550207 509
519901 549101 452
661384 977218 525
302990 142661 443
855663 7152 525
871479 625149 525
796075 628174 504
168384 613953 470
425378 876031 525
902788 561816 525
422134 369843 449
7498 555810 470
953240 574538 525
400699 952534 525
322023 735623 509
800015 938761 525
436003 680307 509
738672 58119 509
665663 82722 509
922669 17070 525
107250 516813 470
348774 542655 470
602907 293141 470
955831 841335 507
714648 98778 509
119058 71384 354
695934 218183 509
316984 665332 509
311694 334535 384
56659 572507 470
734960 705555 411
830563 877796 525
772642 245445 509
111258 436780 449
925834 696157 525
391899 583915 470
426121 729790 509
224580 349172 443
339058 264776 407
766134 902602 525
283197 406355 441
97098 177404 383
822420 603802 509
544177 933418 525
490314 397392 449
161557 556029 470
475797 885423 525
125642 233582 443
649774 538845 509
501008 865870 525
499463 878381 525
383353 280558 441
108860 555660 470
938608 846039 476
132984 152488 375
305553 442308 449
250962 836159 509
822381 239131 509
435503 675156 509
953793 276200 525
571251 721320 509
421391 437705 418
645164 754104 504
464141 615125 470
38656 697558 509
940184 923817 507
762129 145513 509
926891 290758 525
224867 504285 449
24544 734278 509
16909 403804 443
225699 209325 386
584542 270967 470
448233 586073 470
394577 743701 509
9826 723591 509
676697 205068 509
913035 703762 525
485038 38515 449
657241 355730 509
895568 355454 525
13938 216413 386
332787 497672 449
334235 709879 509
209195 503160 449
805416 135516 509
520336 601597 452
864237 801653 525
58227 370524 443
677906 811508 504
